<svg eversion="1.1" viewBox="0 0 500 500" xmlns="http://www.w3.org/2000/svg">
    <circle cx="253.9" cy="246.4" r="204.7" fill="none" stroke="#fff" stroke-miterlimit="10" stroke-width="25"/>
    <polyline fill="none" points="  214.2,313.4 305.9,245 305.9,245 305.9,245 305.9,245 214.3,176.5 " stroke="#fff" stroke-linecap="round" stroke-linejoin="round" stroke-miterlimit="10" stroke-width="25" />
</svg> 