<svg xmlns="http://www.w3.org/2000/svg" width="100.027" height="85.65" viewBox="0 0 100.027 85.65">
  <metadata><?xpacket begin="﻿" id="W5M0MpCehiHzreSzNTczkc9d"?>
<x:xmpmeta xmlns:x="adobe:ns:meta/" x:xmptk="Adobe XMP Core 5.6-c138 79.159824, 2016/09/14-01:09:01        ">
   <rdf:RDF xmlns:rdf="http://www.w3.org/1999/02/22-rdf-syntax-ns#">
      <rdf:Description rdf:about=""/>
   </rdf:RDF>
</x:xmpmeta>
                                                                                                    
                                                                                                    
                                                                                                    
                                                                                                    
                                                                                                    
                                                                                                    
                                                                                                    
                                                                                                    
                                                                                                    
                                                                                                    
                                                                                                    
                                                                                                    
                                                                                                    
                                                                                                    
                                                                                                    
                                                                                                    
                                                                                                    
                                                                                                    
                                                                                                    
                                                                                                    
                           
<?xpacket end="w"?></metadata>
<defs>
    <style>
      .cls-1 {
        fill: #239641;
        fill-rule: evenodd;
      }
    </style>
  </defs>
  <path class="cls-1" d="M1049.96,1982.74a1.1,1.1,0,0,0-.02-0.18l-5.01-34.9a1.955,1.955,0,0,0-2.66-1.53l-23.07,9.28a1.952,1.952,0,1,0,1.46,3.62l20.76-8.35,4.62,32.2a2.477,2.477,0,0,0,.03.27,26.1,26.1,0,0,1-3.12,17.36,26.094,26.094,0,0,1-35.66,9.5l-0.12-.06a37.144,37.144,0,0,0,3.65-3.2l22.86-6.13a1.951,1.951,0,1,0-1.01-3.77l-17.59,4.71a35.322,35.322,0,0,0,4.48-9.44l15.7-4.21a1.956,1.956,0,0,0-1.01-3.78l-11.55,3.1,4.34-7.53,9.18-2.46a1.951,1.951,0,0,0-1.01-3.77l-5.41,1.45,4.16-7.21a1.955,1.955,0,0,0-3.39-1.95l-4.15,7.2-1.45-5.41a1.953,1.953,0,1,0-3.77,1.02l2.46,9.18-2.55,4.4a35.294,35.294,0,0,0-22.677-33.3,0.074,0.074,0,0,1-.038-0.02l-8.838-3.58a1.953,1.953,0,1,0-1.469,3.62l8.758,3.55a0.573,0.573,0,0,0,.121.05,31.434,31.434,0,0,1,6.123,55.58l-3.282-5.68,7.1-26.53a1.953,1.953,0,1,0-3.77-1.02l-6.094,22.76-7.232-12.53,4.931-18.41a1.953,1.953,0,0,0-3.774-1.01l-3.919,14.64-5.7-9.88,2.969-11.09a1.953,1.953,0,0,0-3.773-1.01l-1.959,7.31-5.4-9.36a1.955,1.955,0,0,0-3.383,1.96l5.4,9.35-7.307-1.95a1.952,1.952,0,1,0-1.011,3.77l11.08,2.97,5.7,9.88-14.626-3.92a1.952,1.952,0,1,0-1.011,3.77l18.4,4.94,7.232,12.53-22.749-6.1a1.956,1.956,0,0,0-1.011,3.78l26.522,7.11,3.278,5.68a31.389,31.389,0,0,1-45.014-33.3,2.019,2.019,0,0,0,.027-0.29l5.578-38.84,12.94,5.26a1.958,1.958,0,0,0,1.469-3.63l-15.253-6.19a1.959,1.959,0,0,0-2.668,1.53l-5.969,41.56c-0.009.07-.015,0.13-0.018,0.2a35.316,35.316,0,0,0,50.865,37.08l2.4,4.16a1.951,1.951,0,1,0,3.38-1.95l-0.89-1.54A29.947,29.947,0,0,0,1049.96,1982.74Zm-68.722-36.81a1.95,1.95,0,1,0-1.381-.57A1.979,1.979,0,0,0,981.238,1945.93Zm52.642,16.12a1.928,1.928,0,0,0,2.72.43,1.952,1.952,0,0,0,.44-2.73l-0.01-.01a1.955,1.955,0,0,0-3.17,2.29Z" transform="translate(-950.313 -1932.88)"/>
</svg>
